Data Cleaning
…
4.4 Rides over 24 hours

As discovered in section 4.3(a), Divvy considers any bike lost for
more than 24 hours to be lost or stolen. There are 278 rides in our data
set with durations greater than 24 hours. For the purpose of this
analysis, they will be excluded.

all_rides %>% 
  filter(ride_length >= (24*60*60)) %>%
  filter(!is.na(end_lat) | !is.na(end_lng)) %>% 
  summarize(count=n())

# A tibble: 1 × 1
  count
  <int>
1   278

5. Cleaning data

After a through exploration of the data, it can be efficiently
filtered and cleaned.

valid_rides <- all_rides %>% 
  filter(ride_length >= 60) %>% 
  filter(ride_length < (24*60*60)) %>% 
  filter(!is.na(end_lat) | !is.na(end_lng)) %>% 
  mutate(start_station_name = replace_na(start_station_name, "Dockless")) %>% 
  mutate(start_station_id = replace_na(start_station_id, "No ID")) %>% 
  mutate(end_station_name = replace_na(end_station_name, "Dockless")) %>% 
  mutate(end_station_id = replace_na(end_station_id, "No ID"))

summary(valid_rides)

   ride_id                rideable_type       started_at                    
 Length:5631132     classic_bike :2596050   Min.   :2021-11-01 00:00:14.00  
 Class :character   docked_bike  : 177938   1st Qu.:2022-04-27 09:44:33.25  
 Mode  :character   electric_bike:2857144   Median :2022-06-30 16:48:58.50  
                                            Mean   :2022-06-13 18:26:37.81  
                                            3rd Qu.:2022-08-24 18:27:55.50  
    ended_at                      start_station_name start_station_id  
 Min.   :2021-11-01 00:04:06.00   Length:5631132     Length:5631132    
 1st Qu.:2022-04-27 09:56:54.50   Class :character   Class :character  
 Median :2022-06-30 17:04:42.50   Mode  :character   Mode  :character  
 Mean   :2022-06-13 18:43:15.53                                        
 3rd Qu.:2022-08-24 18:45:07.50                                        
 end_station_name   end_station_id       start_lat       start_lng     
 Length:5631132     Length:5631132     Min.   :41.64   Min.   :-87.84  
 Class :character   Class :character   1st Qu.:41.88   1st Qu.:-87.66  
 Mode  :character   Mode  :character   Median :41.90   Median :-87.64  
                                       Mean   :41.90   Mean   :-87.65  
                                       3rd Qu.:41.93   3rd Qu.:-87.63  
    end_lat         end_lng       member_casual       day_of_week    
 Min.   :41.39   Min.   :-88.97   casual:2300760   Sunday   :774910  
 1st Qu.:41.88   1st Qu.:-87.66   member:3330372   Monday   :758320  
 Median :41.90   Median :-87.64                    Tuesday  :771556  
 Mean   :41.90   Mean   :-87.65                    Wednesday:788199  
 3rd Qu.:41.93   3rd Qu.:-87.63                    Thursday :821849  
  ride_length                               
 Min.   :60s (~1 minutes)                   
 1st Qu.:365s (~6.08 minutes)               
 Median :633s (~10.55 minutes)              
 Mean   :997.71594823208s (~16.63 minutes)  
 3rd Qu.:1128s (~18.8 minutes)              
 [ reached getOption("max.print") -- omitted 2 rows ]
…
